module modernc.org/ccgo/v4

go 1.17

require (
	github.com/dustin/go-humanize v1.0.0
	github.com/pmezard/go-difflib v1.0.0
	golang.org/x/mod v0.6.0-dev.0.20220106191415-9b9b3d81d5e3
	golang.org/x/tools v0.1.10
	modernc.org/cc/v4 v4.0.0-20220608174133-ab9d87864229
	modernc.org/ccorpus2 v0.0.15
	modernc.org/gc/v2 v2.0.0-20220605203922-e55d64315bd6
	modernc.org/opt v0.1.3
)

require (
	github.com/remyoudompheng/bigfft v0.0.0-20200410134404-eec4a21b6bb0 // indirect
	golang.org/x/sys v0.0.0-20211019181941-9d821ace8654 // indirect
	golang.org/x/xerrors v0.0.0-20200804184101-5ec99f83aff1 // indirect
	modernc.org/mathutil v1.4.1 // indirect
	modernc.org/strutil v1.1.1 // indirect
	modernc.org/token v1.0.0 // indirect
)
